"2020-07-05T05:30:00.000+05:30/2020-07-20T05:29:59.999+05:30",15
"2020-06-20T05:30:00.000+05:30/2020-07-20T05:29:59.999+05:30",30
"2020-06-05T05:30:00.000+05:30/2020-07-20T05:29:59.999+05:30",45
"2020-05-20T05:30:00.000+05:30/2020-07-20T05:29:59.999+05:30",60
"2020-05-05T05:30:00.000+05:30/2020-07-20T05:29:59.999+05:30",75
"2020-04-20T05:30:00.000+05:30/2020-07-20T05:29:59.999+05:30",90
